<svg xmlns="http://www.w3.org/2000/svg" viewBox="0 0 227.04 66.451">
  <defs>
    <style>
      .cls-1 {
        fill: #2a789e;
      }

      .cls-2 {
        fill: none;
      }
    </style>
  </defs>
  <g id="Groupe_1214" data-name="Groupe 1214" transform="translate(-3157 -315)">
    <g id="Groupe_1209" data-name="Groupe 1209" transform="translate(3189 315)">
      <path id="Tracé_1943" data-name="Tracé 1943" class="cls-1" d="M26.836,42.719a6.316,6.316,0,0,1,.426,2.982,31.456,31.456,0,0,1-.852,5.112,37.486,37.486,0,0,1-2.13,6.39c-.852,2.13-1.7,5.538-2.982,8.093l1.278-1.278c.426-.426.426-.426.852,0s.426.426,0,.852l-1.7,1.7c-.426.852-1.278,1.278-1.7,2.13a6.054,6.054,0,0,0-.852,2.556c-.426.852-.426,1.7-.852,2.556l-.426,1.278a26.9,26.9,0,0,1-1.7,3.834l-2.556,5.112c-.852,1.7-2.13,3.834-2.982,5.538-1.278,1.7-2.13,3.408-3.408,5.112A30.033,30.033,0,0,1,4.26,98.521a5.678,5.678,0,0,1-2.556,2.13H.426c0-.426-.426-1.278-.426-1.7a8.316,8.316,0,0,1,.426-2.982,19.9,19.9,0,0,1,2.13-4.26c.852-1.7,1.7-3.408,2.982-5.538S8.093,82.335,9.371,80.2a60.952,60.952,0,0,1,4.686-6.39,74.164,74.164,0,0,1,5.112-5.964c.852-1.7,1.7-3.834,2.556-5.964a51.665,51.665,0,0,0,2.13-5.964c.852-2.13,1.278-4.26,1.7-5.538s.426-2.556.852-3.408v-2.13c0-.426,0-.852-.426-.852l-.426-.426A6.054,6.054,0,0,0,23,44.423a13.963,13.963,0,0,0-3.408,2.556,12.964,12.964,0,0,0-3.408,3.408,27.558,27.558,0,0,0-3.408,3.834A23.41,23.41,0,0,0,9.8,58.054c-.852,1.278-1.7,2.13-2.13,2.982A5.663,5.663,0,0,0,6.39,64.018v2.13h0a.417.417,0,0,1,.426.426V67a.417.417,0,0,1-.426.426H5.964L5.538,67c-.426,0-.426-.426-.852-1.278-.426-1.278,0-3.408,1.278-5.538.426-.852,1.278-1.7,2.13-2.982a23.41,23.41,0,0,1,2.982-3.834c1.278-1.278,2.13-2.556,3.408-3.834a27.56,27.56,0,0,1,3.834-3.408c1.278-.852,2.556-2.13,3.834-2.556,1.278-1.278,2.13-1.7,2.982-1.7A2.213,2.213,0,0,1,26.836,42.719Zm-9.8,29.818v-.852c-2.13,2.556-4.26,5.538-6.39,8.519A61.815,61.815,0,0,0,5.538,88.3c-1.278,2.13-2.13,4.686-2.982,6.39a11.286,11.286,0,0,0-1.278,4.26v.426h0a2.283,2.283,0,0,0,1.7-1.278,23.628,23.628,0,0,0,2.556-3.408C6.39,93.41,7.241,91.706,8.519,90c.852-1.7,2.13-3.408,2.982-5.538.852-1.7,1.7-3.834,2.556-5.538a26.057,26.057,0,0,0,2.13-5.112ZM28.966,34.2a.916.916,0,0,1,.852.852c0,.426.426.852.426,1.278a1.13,1.13,0,0,1-1.278,1.278c-.852,0-1.278-.426-1.278-1.7a1.565,1.565,0,0,1,.426-1.278C28.114,34.2,28.54,34.2,28.966,34.2Z" transform="translate(0 -34.2)"/>
      <path id="Tracé_1944" data-name="Tracé 1944" class="cls-1" d="M5.752,56.487c-.426,0-.852,0-.852-.426v-2.13a16.752,16.752,0,0,1,.852-2.556c.426-.852.852-2.13,1.7-3.834l1.278-2.556c.426-.852.852-1.278.852-2.13a3.254,3.254,0,0,0,.852-2.13.417.417,0,0,1,.426-.426h.426a.417.417,0,0,1,.426.426v.426c-.426.426-.426,1.278-.852,1.7a5.662,5.662,0,0,0-1.278,2.982,3.622,3.622,0,0,1-1.278,2.13A20.767,20.767,0,0,1,7.03,50.949c-.426.852-.426,1.7-.852,2.13,0,.426-.426.852-.426,1.278v.852c.426,0,.426-.426.852-.852a5.88,5.88,0,0,0,1.278-1.7,5.025,5.025,0,0,0,2.13-2.13c.426-.852,1.278-1.278,1.7-2.13,1.278-1.7,2.556-2.556,3.408-3.834s1.7-1.7,2.13-2.556c.426-.426,1.278-.852,1.278-1.278a1.319,1.319,0,0,1,.852-.426c.426,0,.426,0,.852.426v1.7a14.421,14.421,0,0,0-1.278,3.408,6.054,6.054,0,0,0-.852,2.556c-.426.852-.426,1.7-.852,2.13a3.84,3.84,0,0,0-.426,2.13v1.278h0a1.487,1.487,0,0,1,.852-.426,5.88,5.88,0,0,1,1.7-1.278c.426-.426,1.278-.852,1.7-1.7.426-.426,1.278-.852,1.7-1.278l1.7-1.7c.426-.426.852-.852,1.278-.852.426-.426.426-.426.852-.426h.426a.417.417,0,0,1,.426.426v.852a1.565,1.565,0,0,1-.426,1.278v2.13a5.7,5.7,0,0,0,2.13-.426,7.875,7.875,0,0,0,3.834-2.982h.852c.426.426.426.426,0,.852A16.3,16.3,0,0,1,29.18,51.8c-1.278.426-2.556.852-3.408,0-.426-.426-.852-.852-.426-1.7,0-.852.426-1.278.426-2.13v-.426l-1.278,1.278L23.217,50.1c-2.13,1.7-3.408,3.408-4.686,4.26s-1.7,1.278-2.556,1.278h0c-.426,0-.852-.426-1.278-.852a4.666,4.666,0,0,1,0-3.408c.426-1.278,1.278-3.408,2.13-5.538a5.983,5.983,0,0,0,1.7-1.7,1.565,1.565,0,0,0,.426-1.278c-.426,0-.852.426-1.278.852s-.852,1.278-1.7,1.7-.852,1.7-1.7,2.13c-.426.852-1.278,1.278-1.7,1.7-1.278,1.278-2.13,2.556-2.982,3.408s-1.278,1.7-2.13,2.13c0,.852-.426,1.278-.852,1.278S6.178,56.487,5.752,56.487Z" transform="translate(15.973 -14.316)"/>
      <path id="Tracé_1945" data-name="Tracé 1945" class="cls-1" d="M48.6,38.608h0a1.319,1.319,0,0,1,.426.852,13.733,13.733,0,0,0-.852,2.556c-.426,1.7-1.278,3.408-2.13,5.964s-1.7,5.112-2.982,8.519c-1.278,2.982-2.13,6.39-3.408,9.371.852,0,1.7-.426,2.556-.426s2.13-.426,2.982-.426h.426l.426.426c0,.426,0,.852-.426.852l-6.39,1.278c-.426,1.7-1.278,3.834-1.7,5.538s-1.278,3.408-1.7,5.112-.852,2.982-1.278,4.26a27.142,27.142,0,0,1-.852,2.982c0,.426-.426.426-.852.426h0c-.426,0-.426-.426-.426-.852a13.168,13.168,0,0,1,.852-3.408c.426-1.278.852-2.556,1.278-4.26a24.015,24.015,0,0,1,1.7-5.112c.426-1.7,1.278-3.408,1.7-5.538-2.982.426-5.538,1.278-7.667,1.7a43.71,43.71,0,0,1-5.964,1.7,55.976,55.976,0,0,0-2.13,6.39,39.565,39.565,0,0,0-1.7,5.538h0a.417.417,0,0,1,.426-.426h.426c.426,0,.426.426.426.852a29.349,29.349,0,0,1-1.278,3.408c-.426.852-.852,1.278-.852,1.7a1.487,1.487,0,0,1-.426.852h-.426c-.426,0-.426-.426-.426-.852v-.852a5.7,5.7,0,0,1,.426-2.13,19.8,19.8,0,0,0,1.278-3.834,20.763,20.763,0,0,1,1.7-4.686c.426-1.7,1.278-3.834,1.7-5.538-2.13.852-4.26,1.7-5.112,2.13a4.662,4.662,0,0,0-1.7.852h-.426c-.426,0-.426,0-.426-.426v-.426a.417.417,0,0,1,.426-.426,22.127,22.127,0,0,0,2.13-1.278,27.459,27.459,0,0,1,5.964-2.556c.426-1.278.852-2.982,1.278-4.26s.852-2.982,1.278-4.26c1.278-3.834,2.556-7.241,3.408-10.223a58.7,58.7,0,0,1,2.556-6.816c.852-1.7,1.278-3.408,1.7-4.26a9.311,9.311,0,0,1,1.278-2.13,1.319,1.319,0,0,0,.426-.852.417.417,0,0,0,.426-.426h.852c.426,0,.426.426.852.852V37.33a3.229,3.229,0,0,1-.852,1.7,3.229,3.229,0,0,0-.852,1.7c-.426.426-.426.852-.852.852l-.426.426a47.77,47.77,0,0,1-2.13,5.538,37.484,37.484,0,0,0-2.13,6.39c-.852,2.13-1.7,4.686-2.556,6.815s-1.7,4.686-2.556,6.816c1.7-.426,3.834-1.278,5.964-1.7s4.686-1.278,7.667-1.7c.852-2.13,1.278-4.26,2.13-6.39s1.278-4.26,2.13-6.39,1.278-3.834,2.13-5.538c.426-1.7,1.278-3.408,1.7-4.686a20.769,20.769,0,0,1,1.278-2.982,3.3,3.3,0,0,0,.426-1.278C47.748,38.608,48.174,38.608,48.6,38.608Z" transform="translate(51.503 -30.94)"/>
      <path id="Tracé_1946" data-name="Tracé 1946" class="cls-1" d="M24.956,58.191c-.426,0-.852,0-.852-.426l-1.278-1.278a3.84,3.84,0,0,1-.426-2.13,8.316,8.316,0,0,1,.426-2.982c.426-.852.852-2.13,1.278-2.982a23.973,23.973,0,0,1,4.26-5.964c1.278-1.278,2.556-2.13,3.834-2.13h1.278c.426,0,.426.426.852.426l.852.852c.426.426,0,.852,0,1.278s0,.852-.426.852c0,.426-.426.426-.426.852-.426.426-.426.426-.852,0s-.426-.426,0-.852c0-.426.426-.426.426-.852V42c0-.426,0-.426-.426-.426h-.852c-.852,0-1.7.852-2.982,2.13a20.643,20.643,0,0,0-3.834,5.538,6.054,6.054,0,0,0-.852,2.556,5.4,5.4,0,0,0-.426,2.556v1.7a1.487,1.487,0,0,0,.426.852,1.565,1.565,0,0,0,1.278-.426,9.648,9.648,0,0,0,2.556-2.982,28.889,28.889,0,0,0,2.556-3.834,24.433,24.433,0,0,0,1.7-2.982c.426-.852.852-1.278.852-1.7a1.319,1.319,0,0,0,.426-.852v-.852a.417.417,0,0,1,.426-.426h.426c.426,0,.426.426.426.852v.852c0,.426-.426,1.278-.426,1.7,0,.852-.426,1.278-.426,2.13v2.13c0,.852,0,1.278.426,1.7,0,.426.426.426.852.426a5.4,5.4,0,0,0,2.556-.426,8.911,8.911,0,0,0,2.556-1.7l2.13-2.13a5.881,5.881,0,0,1,1.278-1.7l.426-.426H45.4c.426.426.426.426,0,.852a5.272,5.272,0,0,0-.852,1.278,11.294,11.294,0,0,1-2.13,2.556,7.64,7.64,0,0,1-2.982,2.13,10.025,10.025,0,0,1-3.408.852,2.343,2.343,0,0,1-2.13-1.278,2.561,2.561,0,0,1-.426-1.7v-2.13a8.911,8.911,0,0,1-1.7,2.556,39.285,39.285,0,0,1-2.13,3.408,9.648,9.648,0,0,1-2.556,2.982C26.234,57.765,25.808,58.191,24.956,58.191Z" transform="translate(73.017 -14.316)"/>
      <path id="Tracé_1947" data-name="Tracé 1947" class="cls-1" d="M27.752,57.513c-.426,0-.426,0-.852-.426v-1.7a15.062,15.062,0,0,0,.426-2.556c.426-1.278.852-2.556,1.278-4.26.426-.852.426-1.7.852-2.556s.426-1.7.852-2.13c.426-.852.426-1.278.852-2.13a.417.417,0,0,1,.426-.426h.426a.417.417,0,0,1,.426.426v.426L31.16,46.012l-1.278,3.834a10.025,10.025,0,0,0-.852,3.408,5.4,5.4,0,0,0-.426,2.556c.426-.426.426-.852.852-1.7.426-.426.426-1.278.852-1.7a39.4,39.4,0,0,0,2.13-4.26c.852-1.278,1.278-2.556,2.13-3.408s1.278-1.7,2.13-2.556,1.278-1.278,2.13-1.278h.852c.426.426.426.426.426.852v2.556c0,.426,0,.852.426.852h.426a3.22,3.22,0,0,0,1.7-.426c.426,0,.852,0,.852.426v.426a.417.417,0,0,1-.426.426c-1.7.426-2.556.426-3.408,0a2.213,2.213,0,0,1-.852-1.7V41.326c-.426.426-1.278.852-1.7,1.7a8.911,8.911,0,0,0-1.7,2.556,25.293,25.293,0,0,0-1.7,3.408,18.522,18.522,0,0,1-1.7,2.982l-1.278,2.556c-.426.852-.426,1.278-.852,1.7s-.426.852-.852.852a4.291,4.291,0,0,0-1.278.426Z" transform="translate(87.686 -12.36)"/>
      <path id="Tracé_1948" data-name="Tracé 1948" class="cls-1" d="M48.769,53.517c.426,0,.426.426.426.852s-.426.426-.852.426H42.805a17.473,17.473,0,0,0-4.686.426C36.841,59.054,35.138,63.314,34.286,68a127.451,127.451,0,0,0-3.408,13.631c0,.426-.426.426-.852.426h0c-.426,0-.426-.426-.426-.852,1.278-4.686,2.13-8.945,3.408-13.205s2.556-8.519,3.834-12.353c-2.13.426-3.834.426-4.686.852a6.717,6.717,0,0,1-1.7.426h0c-.426,0-.426,0-.426-.426v-.426a.417.417,0,0,1,.426-.426,5.169,5.169,0,0,1,2.13-.426c1.278,0,2.982-.852,5.538-.852,0-.426,0-.426.426-.852,0-.426,0-.426.426-.852h-.426c-.426-.426-.426-.426,0-.852a5.88,5.88,0,0,0,1.278-1.7,5.88,5.88,0,0,1,1.278-1.7h0c.852-1.7,1.278-3.834,2.13-5.112a39.58,39.58,0,0,1,2.13-4.26,9.311,9.311,0,0,1,1.278-2.13c.426-.426.426-.852.852-1.278l.426-.426h.426c.426,0,.852,0,.852.426s.426.852,0,1.278a6.586,6.586,0,0,1-1.278,2.556,14.181,14.181,0,0,0-1.278,2.556c-.426.852-1.278,2.13-1.7,2.982s-.852,1.278-1.278,2.13-.852,1.278-1.278,2.13v.426c-.426.852-.426,1.7-.852,2.13-.426.852-.426,1.7-.852,2.556,1.278,0,2.556-.426,4.26-.426S47.065,53.517,48.769,53.517ZM46.213,37.756c-.426.426-.426.852-.852,1.278s-.426.852-.852,1.7A24.431,24.431,0,0,0,46.213,37.756Z" transform="translate(96.487 -30.94)"/>
      <path id="Tracé_1949" data-name="Tracé 1949" class="cls-1" d="M35.879,56.987h-.852a3.619,3.619,0,0,1-2.982-2.982c0-.852-.426-1.7,0-2.982s.426-2.13.852-3.408a6.865,6.865,0,0,1,1.7-2.982c.852-.852,1.278-1.7,2.13-2.556A5.663,5.663,0,0,1,39.712,40.8c.852,0,1.278,0,1.278.426a1.873,1.873,0,0,1,.426,2.13c-.426.852-.426,1.7-1.278,2.556-.426.852-1.278,1.278-1.7,1.7-.852.426-1.278.426-2.13.852-.426,0-1.278.426-1.7.426h-.852a27.148,27.148,0,0,0-.852,2.982v2.556c.426.852.852,1.7,1.7,1.7a3.13,3.13,0,0,0,2.556-.852c.852-.852,2.13-1.7,2.982-2.556.852-1.278,1.7-2.13,2.556-3.408a24.433,24.433,0,0,0,1.7-2.982c.426-.426.426-.426.852-.426.426.426.426.426.426.852a5.273,5.273,0,0,0-.852,1.278,9.311,9.311,0,0,0-1.278,2.13c-.426.852-1.278,1.7-1.7,2.556-.852.852-1.278,1.7-2.13,2.556a8.911,8.911,0,0,1-2.556,1.7C36.3,57.413,36.731,56.987,35.879,56.987Zm4.26-15.335a1.319,1.319,0,0,0-.852.426c-.426.426-.852.426-1.278.852l-1.7,1.7a9.311,9.311,0,0,0-1.278,2.13h.852a1.565,1.565,0,0,0,1.278-.426c.426,0,.852-.426,1.278-.852l1.278-1.278c.426-.852.852-1.278.852-1.7a1.319,1.319,0,0,0-.426-.852Z" transform="translate(103.839 -12.686)"/>
      <path id="Tracé_1950" data-name="Tracé 1950" class="cls-1" d="M35.152,57.513c-.426,0-.426,0-.852-.426v-1.7a15.063,15.063,0,0,0,.426-2.556c.426-1.278.852-2.556,1.278-4.26.426-.852.426-1.7.852-2.556s.426-1.7.852-2.13c.426-.852.426-1.278.852-2.13a.417.417,0,0,1,.426-.426h.426a.417.417,0,0,1,.426.426v.426L38.56,46.012l-1.278,3.834a10.025,10.025,0,0,0-.852,3.408A5.4,5.4,0,0,0,36,55.809c.426-.426.426-.852.852-1.7.426-.426.426-1.278.852-1.7a39.4,39.4,0,0,0,2.13-4.26c.852-1.278,1.278-2.556,2.13-3.408s1.278-1.7,2.13-2.556,1.278-1.278,2.13-1.278h.852c.426.426.426.426.426.852v2.556c0,.426,0,.852.426.852h.426a3.22,3.22,0,0,0,1.7-.426c.426,0,.852,0,.852.426v.426a.417.417,0,0,1-.426.426c-1.7.426-2.556.426-3.408,0-1.278,0-1.278-.852-1.278-1.278V41.752c-.426.426-1.278.852-1.7,1.7a8.912,8.912,0,0,0-1.7,2.556,25.3,25.3,0,0,0-1.7,3.408,18.519,18.519,0,0,1-1.7,2.982l-1.278,2.556c-.426.852-.426,1.278-.852,1.7s-.426.852-.852.852Z" transform="translate(111.808 -12.36)"/>
    </g>
    <rect id="Rectangle_1583" data-name="Rectangle 1583" class="cls-2" width="227.04" height="66.45" transform="translate(3157 315)"/>
  </g>
</svg>
